^C:\EPICFORCEBACKUP\EPICFORCEENGINE\EPICFORCEENGINE\WXMAGNUMEDITOR\BITMAPCREATER.CPP
/c /I../MagnumEngineLib/MagnumCore /I../MagnumEngineLib/SDK/OpenGLES/GL2/Include /I../MagnumEngineLib/SDK/GLEW/Include/GL /I../MagnumEngineLib/SDK/unzip /Iwx\lib\vc_lib\mswu /Iwx\include /Zi /nologo /W3 /WX- /O2 /Oi /Oy- /GL /D _CRT_SECURE_NO_WARNINGS /D WIN32 /D NDEBUG /D _WINDOWS /D _UNICODE /D UNICODE /Gm- /EHsc /MD /GS /Gy /fp:precise /Zc:wchar_t /Zc:forScope /Fo"RELEASE\\" /Fd"RELEASE\VC110.PDB" /Gd /TP /analyze- C:\EPICFORCEBACKUP\EPICFORCEENGINE\EPICFORCEENGINE\WXMAGNUMEDITOR\BITMAPCREATER.CPP
^C:\EPICFORCEBACKUP\EPICFORCEENGINE\EPICFORCEENGINE\WXMAGNUMEDITOR\CONFIG.CPP
/c /I../MagnumEngineLib/MagnumCore /I../MagnumEngineLib/SDK/OpenGLES/GL2/Include /I../MagnumEngineLib/SDK/GLEW/Include/GL /I../MagnumEngineLib/SDK/unzip /Iwx\lib\vc_lib\mswu /Iwx\include /Zi /nologo /W3 /WX- /O2 /Oi /Oy- /GL /D _CRT_SECURE_NO_WARNINGS /D WIN32 /D NDEBUG /D _WINDOWS /D _UNICODE /D UNICODE /Gm- /EHsc /MD /GS /Gy /fp:precise /Zc:wchar_t /Zc:forScope /Fo"RELEASE\\" /Fd"RELEASE\VC110.PDB" /Gd /TP /analyze- C:\EPICFORCEBACKUP\EPICFORCEENGINE\EPICFORCEENGINE\WXMAGNUMEDITOR\CONFIG.CPP
^C:\EPICFORCEBACKUP\EPICFORCEENGINE\EPICFORCEENGINE\WXMAGNUMEDITOR\REFLECTEDCLASSPROPERTYPANEL.CPP
/c /I../MagnumEngineLib/MagnumCore /I../MagnumEngineLib/SDK/OpenGLES/GL2/Include /I../MagnumEngineLib/SDK/GLEW/Include/GL /I../MagnumEngineLib/SDK/unzip /Iwx\lib\vc_lib\mswu /Iwx\include /Zi /nologo /W3 /WX- /O2 /Oi /Oy- /GL /D _CRT_SECURE_NO_WARNINGS /D WIN32 /D NDEBUG /D _WINDOWS /D _UNICODE /D UNICODE /Gm- /EHsc /MD /GS /Gy /fp:precise /Zc:wchar_t /Zc:forScope /Fo"RELEASE\\" /Fd"RELEASE\VC110.PDB" /Gd /TP /analyze- C:\EPICFORCEBACKUP\EPICFORCEENGINE\EPICFORCEENGINE\WXMAGNUMEDITOR\REFLECTEDCLASSPROPERTYPANEL.CPP
^C:\EPICFORCEBACKUP\EPICFORCEENGINE\EPICFORCEENGINE\WXMAGNUMEDITOR\EGLDRIVER20.CPP
/c /I../MagnumEngineLib/MagnumCore /I../MagnumEngineLib/SDK/OpenGLES/GL2/Include /I../MagnumEngineLib/SDK/GLEW/Include/GL /I../MagnumEngineLib/SDK/unzip /Iwx\lib\vc_lib\mswu /Iwx\include /Zi /nologo /W3 /WX- /O2 /Oi /Oy- /GL /D _CRT_SECURE_NO_WARNINGS /D WIN32 /D NDEBUG /D _WINDOWS /D _UNICODE /D UNICODE /Gm- /EHsc /MD /GS /Gy /fp:precise /Zc:wchar_t /Zc:forScope /Fo"RELEASE\\" /Fd"RELEASE\VC110.PDB" /Gd /TP /analyze- C:\EPICFORCEBACKUP\EPICFORCEENGINE\EPICFORCEENGINE\WXMAGNUMEDITOR\EGLDRIVER20.CPP
^C:\EPICFORCEBACKUP\EPICFORCEENGINE\EPICFORCEENGINE\WXMAGNUMEDITOR\ENTITYDRAGDROP.CPP
/c /I../MagnumEngineLib/MagnumCore /I../MagnumEngineLib/SDK/OpenGLES/GL2/Include /I../MagnumEngineLib/SDK/GLEW/Include/GL /I../MagnumEngineLib/SDK/unzip /Iwx\lib\vc_lib\mswu /Iwx\include /Zi /nologo /W3 /WX- /O2 /Oi /Oy- /GL /D _CRT_SECURE_NO_WARNINGS /D WIN32 /D NDEBUG /D _WINDOWS /D _UNICODE /D UNICODE /Gm- /EHsc /MD /GS /Gy /fp:precise /Zc:wchar_t /Zc:forScope /Fo"RELEASE\\" /Fd"RELEASE\VC110.PDB" /Gd /TP /analyze- C:\EPICFORCEBACKUP\EPICFORCEENGINE\EPICFORCEENGINE\WXMAGNUMEDITOR\ENTITYDRAGDROP.CPP
^C:\EPICFORCEBACKUP\EPICFORCEENGINE\EPICFORCEENGINE\WXMAGNUMEDITOR\INPUTDATA.CPP
/c /I../MagnumEngineLib/MagnumCore /I../MagnumEngineLib/SDK/OpenGLES/GL2/Include /I../MagnumEngineLib/SDK/GLEW/Include/GL /I../MagnumEngineLib/SDK/unzip /Iwx\lib\vc_lib\mswu /Iwx\include /Zi /nologo /W3 /WX- /O2 /Oi /Oy- /GL /D _CRT_SECURE_NO_WARNINGS /D WIN32 /D NDEBUG /D _WINDOWS /D _UNICODE /D UNICODE /Gm- /EHsc /MD /GS /Gy /fp:precise /Zc:wchar_t /Zc:forScope /Fo"RELEASE\\" /Fd"RELEASE\VC110.PDB" /Gd /TP /analyze- C:\EPICFORCEBACKUP\EPICFORCEENGINE\EPICFORCEENGINE\WXMAGNUMEDITOR\INPUTDATA.CPP
^C:\EPICFORCEBACKUP\EPICFORCEENGINE\EPICFORCEENGINE\WXMAGNUMEDITOR\LOCALIZATION.CPP
/c /I../MagnumEngineLib/MagnumCore /I../MagnumEngineLib/SDK/OpenGLES/GL2/Include /I../MagnumEngineLib/SDK/GLEW/Include/GL /I../MagnumEngineLib/SDK/unzip /Iwx\lib\vc_lib\mswu /Iwx\include /Zi /nologo /W3 /WX- /O2 /Oi /Oy- /GL /D _CRT_SECURE_NO_WARNINGS /D WIN32 /D NDEBUG /D _WINDOWS /D _UNICODE /D UNICODE /Gm- /EHsc /MD /GS /Gy /fp:precise /Zc:wchar_t /Zc:forScope /Fo"RELEASE\\" /Fd"RELEASE\VC110.PDB" /Gd /TP /analyze- C:\EPICFORCEBACKUP\EPICFORCEENGINE\EPICFORCEENGINE\WXMAGNUMEDITOR\LOCALIZATION.CPP
^C:\EPICFORCEBACKUP\EPICFORCEENGINE\EPICFORCEENGINE\WXMAGNUMEDITOR\RESOURCEIMPORTDRAGDROP.CPP
/c /I../MagnumEngineLib/MagnumCore /I../MagnumEngineLib/SDK/OpenGLES/GL2/Include /I../MagnumEngineLib/SDK/GLEW/Include/GL /I../MagnumEngineLib/SDK/unzip /Iwx\lib\vc_lib\mswu /Iwx\include /Zi /nologo /W3 /WX- /O2 /Oi /Oy- /GL /D _CRT_SECURE_NO_WARNINGS /D WIN32 /D NDEBUG /D _WINDOWS /D _UNICODE /D UNICODE /Gm- /EHsc /MD /GS /Gy /fp:precise /Zc:wchar_t /Zc:forScope /Fo"RELEASE\\" /Fd"RELEASE\VC110.PDB" /Gd /TP /analyze- C:\EPICFORCEBACKUP\EPICFORCEENGINE\EPICFORCEENGINE\WXMAGNUMEDITOR\RESOURCEIMPORTDRAGDROP.CPP
^C:\EPICFORCEBACKUP\EPICFORCEENGINE\EPICFORCEENGINE\WXMAGNUMEDITOR\WXARRAYBOOLCTRL.CPP
/c /I../MagnumEngineLib/MagnumCore /I../MagnumEngineLib/SDK/OpenGLES/GL2/Include /I../MagnumEngineLib/SDK/GLEW/Include/GL /I../MagnumEngineLib/SDK/unzip /Iwx\lib\vc_lib\mswu /Iwx\include /Zi /nologo /W3 /WX- /O2 /Oi /Oy- /GL /D _CRT_SECURE_NO_WARNINGS /D WIN32 /D NDEBUG /D _WINDOWS /D _UNICODE /D UNICODE /Gm- /EHsc /MD /GS /Gy /fp:precise /Zc:wchar_t /Zc:forScope /Fo"RELEASE\\" /Fd"RELEASE\VC110.PDB" /Gd /TP /analyze- C:\EPICFORCEBACKUP\EPICFORCEENGINE\EPICFORCEENGINE\WXMAGNUMEDITOR\WXARRAYBOOLCTRL.CPP
^C:\EPICFORCEBACKUP\EPICFORCEENGINE\EPICFORCEENGINE\WXMAGNUMEDITOR\WXARRAYCOLORRGBACTRL.CPP
/c /I../MagnumEngineLib/MagnumCore /I../MagnumEngineLib/SDK/OpenGLES/GL2/Include /I../MagnumEngineLib/SDK/GLEW/Include/GL /I../MagnumEngineLib/SDK/unzip /Iwx\lib\vc_lib\mswu /Iwx\include /Zi /nologo /W3 /WX- /O2 /Oi /Oy- /GL /D _CRT_SECURE_NO_WARNINGS /D WIN32 /D NDEBUG /D _WINDOWS /D _UNICODE /D UNICODE /Gm- /EHsc /MD /GS /Gy /fp:precise /Zc:wchar_t /Zc:forScope /Fo"RELEASE\\" /Fd"RELEASE\VC110.PDB" /Gd /TP /analyze- C:\EPICFORCEBACKUP\EPICFORCEENGINE\EPICFORCEENGINE\WXMAGNUMEDITOR\WXARRAYCOLORRGBACTRL.CPP
^C:\EPICFORCEBACKUP\EPICFORCEENGINE\EPICFORCEENGINE\WXMAGNUMEDITOR\WXARRAYDOUBLESPINNERCTRL.CPP
/c /I../MagnumEngineLib/MagnumCore /I../MagnumEngineLib/SDK/OpenGLES/GL2/Include /I../MagnumEngineLib/SDK/GLEW/Include/GL /I../MagnumEngineLib/SDK/unzip /Iwx\lib\vc_lib\mswu /Iwx\include /Zi /nologo /W3 /WX- /O2 /Oi /Oy- /GL /D _CRT_SECURE_NO_WARNINGS /D WIN32 /D NDEBUG /D _WINDOWS /D _UNICODE /D UNICODE /Gm- /EHsc /MD /GS /Gy /fp:precise /Zc:wchar_t /Zc:forScope /Fo"RELEASE\\" /Fd"RELEASE\VC110.PDB" /Gd /TP /analyze- C:\EPICFORCEBACKUP\EPICFORCEENGINE\EPICFORCEENGINE\WXMAGNUMEDITOR\WXARRAYDOUBLESPINNERCTRL.CPP
^C:\EPICFORCEBACKUP\EPICFORCEENGINE\EPICFORCEENGINE\WXMAGNUMEDITOR\WXARRAYFLOATSPINNERCTRL.CPP
/c /I../MagnumEngineLib/MagnumCore /I../MagnumEngineLib/SDK/OpenGLES/GL2/Include /I../MagnumEngineLib/SDK/GLEW/Include/GL /I../MagnumEngineLib/SDK/unzip /Iwx\lib\vc_lib\mswu /Iwx\include /Zi /nologo /W3 /WX- /O2 /Oi /Oy- /GL /D _CRT_SECURE_NO_WARNINGS /D WIN32 /D NDEBUG /D _WINDOWS /D _UNICODE /D UNICODE /Gm- /EHsc /MD /GS /Gy /fp:precise /Zc:wchar_t /Zc:forScope /Fo"RELEASE\\" /Fd"RELEASE\VC110.PDB" /Gd /TP /analyze- C:\EPICFORCEBACKUP\EPICFORCEENGINE\EPICFORCEENGINE\WXMAGNUMEDITOR\WXARRAYFLOATSPINNERCTRL.CPP
^C:\EPICFORCEBACKUP\EPICFORCEENGINE\EPICFORCEENGINE\WXMAGNUMEDITOR\WXARRAYINTSPINNERCTRL.CPP
/c /I../MagnumEngineLib/MagnumCore /I../MagnumEngineLib/SDK/OpenGLES/GL2/Include /I../MagnumEngineLib/SDK/GLEW/Include/GL /I../MagnumEngineLib/SDK/unzip /Iwx\lib\vc_lib\mswu /Iwx\include /Zi /nologo /W3 /WX- /O2 /Oi /Oy- /GL /D _CRT_SECURE_NO_WARNINGS /D WIN32 /D NDEBUG /D _WINDOWS /D _UNICODE /D UNICODE /Gm- /EHsc /MD /GS /Gy /fp:precise /Zc:wchar_t /Zc:forScope /Fo"RELEASE\\" /Fd"RELEASE\VC110.PDB" /Gd /TP /analyze- C:\EPICFORCEBACKUP\EPICFORCEENGINE\EPICFORCEENGINE\WXMAGNUMEDITOR\WXARRAYINTSPINNERCTRL.CPP
^C:\EPICFORCEBACKUP\EPICFORCEENGINE\EPICFORCEENGINE\WXMAGNUMEDITOR\WXARRAYIVECTOR2SPINNERCTRL.CPP
/c /I../MagnumEngineLib/MagnumCore /I../MagnumEngineLib/SDK/OpenGLES/GL2/Include /I../MagnumEngineLib/SDK/GLEW/Include/GL /I../MagnumEngineLib/SDK/unzip /Iwx\lib\vc_lib\mswu /Iwx\include /Zi /nologo /W3 /WX- /O2 /Oi /Oy- /GL /D _CRT_SECURE_NO_WARNINGS /D WIN32 /D NDEBUG /D _WINDOWS /D _UNICODE /D UNICODE /Gm- /EHsc /MD /GS /Gy /fp:precise /Zc:wchar_t /Zc:forScope /Fo"RELEASE\\" /Fd"RELEASE\VC110.PDB" /Gd /TP /analyze- C:\EPICFORCEBACKUP\EPICFORCEENGINE\EPICFORCEENGINE\WXMAGNUMEDITOR\WXARRAYIVECTOR2SPINNERCTRL.CPP
^C:\EPICFORCEBACKUP\EPICFORCEENGINE\EPICFORCEENGINE\WXMAGNUMEDITOR\WXARRAYIVECTOR3SPINNERCTRL.CPP
/c /I../MagnumEngineLib/MagnumCore /I../MagnumEngineLib/SDK/OpenGLES/GL2/Include /I../MagnumEngineLib/SDK/GLEW/Include/GL /I../MagnumEngineLib/SDK/unzip /Iwx\lib\vc_lib\mswu /Iwx\include /Zi /nologo /W3 /WX- /O2 /Oi /Oy- /GL /D _CRT_SECURE_NO_WARNINGS /D WIN32 /D NDEBUG /D _WINDOWS /D _UNICODE /D UNICODE /Gm- /EHsc /MD /GS /Gy /fp:precise /Zc:wchar_t /Zc:forScope /Fo"RELEASE\\" /Fd"RELEASE\VC110.PDB" /Gd /TP /analyze- C:\EPICFORCEBACKUP\EPICFORCEENGINE\EPICFORCEENGINE\WXMAGNUMEDITOR\WXARRAYIVECTOR3SPINNERCTRL.CPP
^C:\EPICFORCEBACKUP\EPICFORCEENGINE\EPICFORCEENGINE\WXMAGNUMEDITOR\WXARRAYIVECTOR4SPINNERCTRL.CPP
/c /I../MagnumEngineLib/MagnumCore /I../MagnumEngineLib/SDK/OpenGLES/GL2/Include /I../MagnumEngineLib/SDK/GLEW/Include/GL /I../MagnumEngineLib/SDK/unzip /Iwx\lib\vc_lib\mswu /Iwx\include /Zi /nologo /W3 /WX- /O2 /Oi /Oy- /GL /D _CRT_SECURE_NO_WARNINGS /D WIN32 /D NDEBUG /D _WINDOWS /D _UNICODE /D UNICODE /Gm- /EHsc /MD /GS /Gy /fp:precise /Zc:wchar_t /Zc:forScope /Fo"RELEASE\\" /Fd"RELEASE\VC110.PDB" /Gd /TP /analyze- C:\EPICFORCEBACKUP\EPICFORCEENGINE\EPICFORCEENGINE\WXMAGNUMEDITOR\WXARRAYIVECTOR4SPINNERCTRL.CPP
^C:\EPICFORCEBACKUP\EPICFORCEENGINE\EPICFORCEENGINE\WXMAGNUMEDITOR\WXARRAYLENGTHCTRL.CPP
/c /I../MagnumEngineLib/MagnumCore /I../MagnumEngineLib/SDK/OpenGLES/GL2/Include /I../MagnumEngineLib/SDK/GLEW/Include/GL /I../MagnumEngineLib/SDK/unzip /Iwx\lib\vc_lib\mswu /Iwx\include /Zi /nologo /W3 /WX- /O2 /Oi /Oy- /GL /D _CRT_SECURE_NO_WARNINGS /D WIN32 /D NDEBUG /D _WINDOWS /D _UNICODE /D UNICODE /Gm- /EHsc /MD /GS /Gy /fp:precise /Zc:wchar_t /Zc:forScope /Fo"RELEASE\\" /Fd"RELEASE\VC110.PDB" /Gd /TP /analyze- C:\EPICFORCEBACKUP\EPICFORCEENGINE\EPICFORCEENGINE\WXMAGNUMEDITOR\WXARRAYLENGTHCTRL.CPP
^C:\EPICFORCEBACKUP\EPICFORCEENGINE\EPICFORCEENGINE\WXMAGNUMEDITOR\WXARRAYRESOURCEPATHCTRL.CPP
/c /I../MagnumEngineLib/MagnumCore /I../MagnumEngineLib/SDK/OpenGLES/GL2/Include /I../MagnumEngineLib/SDK/GLEW/Include/GL /I../MagnumEngineLib/SDK/unzip /Iwx\lib\vc_lib\mswu /Iwx\include /Zi /nologo /W3 /WX- /O2 /Oi /Oy- /GL /D _CRT_SECURE_NO_WARNINGS /D WIN32 /D NDEBUG /D _WINDOWS /D _UNICODE /D UNICODE /Gm- /EHsc /MD /GS /Gy /fp:precise /Zc:wchar_t /Zc:forScope /Fo"RELEASE\\" /Fd"RELEASE\VC110.PDB" /Gd /TP /analyze- C:\EPICFORCEBACKUP\EPICFORCEENGINE\EPICFORCEENGINE\WXMAGNUMEDITOR\WXARRAYRESOURCEPATHCTRL.CPP
^C:\EPICFORCEBACKUP\EPICFORCEENGINE\EPICFORCEENGINE\WXMAGNUMEDITOR\WXARRAYSRTTRANSFORMCTRL.CPP
/c /I../MagnumEngineLib/MagnumCore /I../MagnumEngineLib/SDK/OpenGLES/GL2/Include /I../MagnumEngineLib/SDK/GLEW/Include/GL /I../MagnumEngineLib/SDK/unzip /Iwx\lib\vc_lib\mswu /Iwx\include /Zi /nologo /W3 /WX- /O2 /Oi /Oy- /GL /D _CRT_SECURE_NO_WARNINGS /D WIN32 /D NDEBUG /D _WINDOWS /D _UNICODE /D UNICODE /Gm- /EHsc /MD /GS /Gy /fp:precise /Zc:wchar_t /Zc:forScope /Fo"RELEASE\\" /Fd"RELEASE\VC110.PDB" /Gd /TP /analyze- C:\EPICFORCEBACKUP\EPICFORCEENGINE\EPICFORCEENGINE\WXMAGNUMEDITOR\WXARRAYSRTTRANSFORMCTRL.CPP
^C:\EPICFORCEBACKUP\EPICFORCEENGINE\EPICFORCEENGINE\WXMAGNUMEDITOR\WXARRAYSTRINGCTRL.CPP
/c /I../MagnumEngineLib/MagnumCore /I../MagnumEngineLib/SDK/OpenGLES/GL2/Include /I../MagnumEngineLib/SDK/GLEW/Include/GL /I../MagnumEngineLib/SDK/unzip /Iwx\lib\vc_lib\mswu /Iwx\include /Zi /nologo /W3 /WX- /O2 /Oi /Oy- /GL /D _CRT_SECURE_NO_WARNINGS /D WIN32 /D NDEBUG /D _WINDOWS /D _UNICODE /D UNICODE /Gm- /EHsc /MD /GS /Gy /fp:precise /Zc:wchar_t /Zc:forScope /Fo"RELEASE\\" /Fd"RELEASE\VC110.PDB" /Gd /TP /analyze- C:\EPICFORCEBACKUP\EPICFORCEENGINE\EPICFORCEENGINE\WXMAGNUMEDITOR\WXARRAYSTRINGCTRL.CPP
^C:\EPICFORCEBACKUP\EPICFORCEENGINE\EPICFORCEENGINE\WXMAGNUMEDITOR\WXARRAYUINTSPINNERCTRL.CPP
/c /I../MagnumEngineLib/MagnumCore /I../MagnumEngineLib/SDK/OpenGLES/GL2/Include /I../MagnumEngineLib/SDK/GLEW/Include/GL /I../MagnumEngineLib/SDK/unzip /Iwx\lib\vc_lib\mswu /Iwx\include /Zi /nologo /W3 /WX- /O2 /Oi /Oy- /GL /D _CRT_SECURE_NO_WARNINGS /D WIN32 /D NDEBUG /D _WINDOWS /D _UNICODE /D UNICODE /Gm- /EHsc /MD /GS /Gy /fp:precise /Zc:wchar_t /Zc:forScope /Fo"RELEASE\\" /Fd"RELEASE\VC110.PDB" /Gd /TP /analyze- C:\EPICFORCEBACKUP\EPICFORCEENGINE\EPICFORCEENGINE\WXMAGNUMEDITOR\WXARRAYUINTSPINNERCTRL.CPP
^C:\EPICFORCEBACKUP\EPICFORCEENGINE\EPICFORCEENGINE\WXMAGNUMEDITOR\WXARRAYVECTOR2SPINNERCTRL.CPP
/c /I../MagnumEngineLib/MagnumCore /I../MagnumEngineLib/SDK/OpenGLES/GL2/Include /I../MagnumEngineLib/SDK/GLEW/Include/GL /I../MagnumEngineLib/SDK/unzip /Iwx\lib\vc_lib\mswu /Iwx\include /Zi /nologo /W3 /WX- /O2 /Oi /Oy- /GL /D _CRT_SECURE_NO_WARNINGS /D WIN32 /D NDEBUG /D _WINDOWS /D _UNICODE /D UNICODE /Gm- /EHsc /MD /GS /Gy /fp:precise /Zc:wchar_t /Zc:forScope /Fo"RELEASE\\" /Fd"RELEASE\VC110.PDB" /Gd /TP /analyze- C:\EPICFORCEBACKUP\EPICFORCEENGINE\EPICFORCEENGINE\WXMAGNUMEDITOR\WXARRAYVECTOR2SPINNERCTRL.CPP
^C:\EPICFORCEBACKUP\EPICFORCEENGINE\EPICFORCEENGINE\WXMAGNUMEDITOR\WXARRAYVECTOR3SPINNERCTRL.CPP
/c /I../MagnumEngineLib/MagnumCore /I../MagnumEngineLib/SDK/OpenGLES/GL2/Include /I../MagnumEngineLib/SDK/GLEW/Include/GL /I../MagnumEngineLib/SDK/unzip /Iwx\lib\vc_lib\mswu /Iwx\include /Zi /nologo /W3 /WX- /O2 /Oi /Oy- /GL /D _CRT_SECURE_NO_WARNINGS /D WIN32 /D NDEBUG /D _WINDOWS /D _UNICODE /D UNICODE /Gm- /EHsc /MD /GS /Gy /fp:precise /Zc:wchar_t /Zc:forScope /Fo"RELEASE\\" /Fd"RELEASE\VC110.PDB" /Gd /TP /analyze- C:\EPICFORCEBACKUP\EPICFORCEENGINE\EPICFORCEENGINE\WXMAGNUMEDITOR\WXARRAYVECTOR3SPINNERCTRL.CPP
^C:\EPICFORCEBACKUP\EPICFORCEENGINE\EPICFORCEENGINE\WXMAGNUMEDITOR\WXARRAYVECTOR4SPINNERCTRL.CPP
/c /I../MagnumEngineLib/MagnumCore /I../MagnumEngineLib/SDK/OpenGLES/GL2/Include /I../MagnumEngineLib/SDK/GLEW/Include/GL /I../MagnumEngineLib/SDK/unzip /Iwx\lib\vc_lib\mswu /Iwx\include /Zi /nologo /W3 /WX- /O2 /Oi /Oy- /GL /D _CRT_SECURE_NO_WARNINGS /D WIN32 /D NDEBUG /D _WINDOWS /D _UNICODE /D UNICODE /Gm- /EHsc /MD /GS /Gy /fp:precise /Zc:wchar_t /Zc:forScope /Fo"RELEASE\\" /Fd"RELEASE\VC110.PDB" /Gd /TP /analyze- C:\EPICFORCEBACKUP\EPICFORCEENGINE\EPICFORCEENGINE\WXMAGNUMEDITOR\WXARRAYVECTOR4SPINNERCTRL.CPP
^C:\EPICFORCEBACKUP\EPICFORCEENGINE\EPICFORCEENGINE\WXMAGNUMEDITOR\WXBOOLCTRL.CPP
/c /I../MagnumEngineLib/MagnumCore /I../MagnumEngineLib/SDK/OpenGLES/GL2/Include /I../MagnumEngineLib/SDK/GLEW/Include/GL /I../MagnumEngineLib/SDK/unzip /Iwx\lib\vc_lib\mswu /Iwx\include /Zi /nologo /W3 /WX- /O2 /Oi /Oy- /GL /D _CRT_SECURE_NO_WARNINGS /D WIN32 /D NDEBUG /D _WINDOWS /D _UNICODE /D UNICODE /Gm- /EHsc /MD /GS /Gy /fp:precise /Zc:wchar_t /Zc:forScope /Fo"RELEASE\\" /Fd"RELEASE\VC110.PDB" /Gd /TP /analyze- C:\EPICFORCEBACKUP\EPICFORCEENGINE\EPICFORCEENGINE\WXMAGNUMEDITOR\WXBOOLCTRL.CPP
^C:\EPICFORCEBACKUP\EPICFORCEENGINE\EPICFORCEENGINE\WXMAGNUMEDITOR\WXCOLLAPSEPANELCTRL.CPP
/c /I../MagnumEngineLib/MagnumCore /I../MagnumEngineLib/SDK/OpenGLES/GL2/Include /I../MagnumEngineLib/SDK/GLEW/Include/GL /I../MagnumEngineLib/SDK/unzip /Iwx\lib\vc_lib\mswu /Iwx\include /Zi /nologo /W3 /WX- /O2 /Oi /Oy- /GL /D _CRT_SECURE_NO_WARNINGS /D WIN32 /D NDEBUG /D _WINDOWS /D _UNICODE /D UNICODE /Gm- /EHsc /MD /GS /Gy /fp:precise /Zc:wchar_t /Zc:forScope /Fo"RELEASE\\" /Fd"RELEASE\VC110.PDB" /Gd /TP /analyze- C:\EPICFORCEBACKUP\EPICFORCEENGINE\EPICFORCEENGINE\WXMAGNUMEDITOR\WXCOLLAPSEPANELCTRL.CPP
^C:\EPICFORCEBACKUP\EPICFORCEENGINE\EPICFORCEENGINE\WXMAGNUMEDITOR\WXCOLORDLG.CPP
/c /I../MagnumEngineLib/MagnumCore /I../MagnumEngineLib/SDK/OpenGLES/GL2/Include /I../MagnumEngineLib/SDK/GLEW/Include/GL /I../MagnumEngineLib/SDK/unzip /Iwx\lib\vc_lib\mswu /Iwx\include /Zi /nologo /W3 /WX- /O2 /Oi /Oy- /GL /D _CRT_SECURE_NO_WARNINGS /D WIN32 /D NDEBUG /D _WINDOWS /D _UNICODE /D UNICODE /Gm- /EHsc /MD /GS /Gy /fp:precise /Zc:wchar_t /Zc:forScope /Fo"RELEASE\\" /Fd"RELEASE\VC110.PDB" /Gd /TP /analyze- C:\EPICFORCEBACKUP\EPICFORCEENGINE\EPICFORCEENGINE\WXMAGNUMEDITOR\WXCOLORDLG.CPP
^C:\EPICFORCEBACKUP\EPICFORCEENGINE\EPICFORCEENGINE\WXMAGNUMEDITOR\WXCOLORRGBACTRL.CPP
/c /I../MagnumEngineLib/MagnumCore /I../MagnumEngineLib/SDK/OpenGLES/GL2/Include /I../MagnumEngineLib/SDK/GLEW/Include/GL /I../MagnumEngineLib/SDK/unzip /Iwx\lib\vc_lib\mswu /Iwx\include /Zi /nologo /W3 /WX- /O2 /Oi /Oy- /GL /D _CRT_SECURE_NO_WARNINGS /D WIN32 /D NDEBUG /D _WINDOWS /D _UNICODE /D UNICODE /Gm- /EHsc /MD /GS /Gy /fp:precise /Zc:wchar_t /Zc:forScope /Fo"RELEASE\\" /Fd"RELEASE\VC110.PDB" /Gd /TP /analyze- C:\EPICFORCEBACKUP\EPICFORCEENGINE\EPICFORCEENGINE\WXMAGNUMEDITOR\WXCOLORRGBACTRL.CPP
^C:\EPICFORCEBACKUP\EPICFORCEENGINE\EPICFORCEENGINE\WXMAGNUMEDITOR\WXDOUBLESPINNERCTRL.CPP
/c /I../MagnumEngineLib/MagnumCore /I../MagnumEngineLib/SDK/OpenGLES/GL2/Include /I../MagnumEngineLib/SDK/GLEW/Include/GL /I../MagnumEngineLib/SDK/unzip /Iwx\lib\vc_lib\mswu /Iwx\include /Zi /nologo /W3 /WX- /O2 /Oi /Oy- /GL /D _CRT_SECURE_NO_WARNINGS /D WIN32 /D NDEBUG /D _WINDOWS /D _UNICODE /D UNICODE /Gm- /EHsc /MD /GS /Gy /fp:precise /Zc:wchar_t /Zc:forScope /Fo"RELEASE\\" /Fd"RELEASE\VC110.PDB" /Gd /TP /analyze- C:\EPICFORCEBACKUP\EPICFORCEENGINE\EPICFORCEENGINE\WXMAGNUMEDITOR\WXDOUBLESPINNERCTRL.CPP
^C:\EPICFORCEBACKUP\EPICFORCEENGINE\EPICFORCEENGINE\WXMAGNUMEDITOR\WXFLOATSPINNERCTRL.CPP
/c /I../MagnumEngineLib/MagnumCore /I../MagnumEngineLib/SDK/OpenGLES/GL2/Include /I../MagnumEngineLib/SDK/GLEW/Include/GL /I../MagnumEngineLib/SDK/unzip /Iwx\lib\vc_lib\mswu /Iwx\include /Zi /nologo /W3 /WX- /O2 /Oi /Oy- /GL /D _CRT_SECURE_NO_WARNINGS /D WIN32 /D NDEBUG /D _WINDOWS /D _UNICODE /D UNICODE /Gm- /EHsc /MD /GS /Gy /fp:precise /Zc:wchar_t /Zc:forScope /Fo"RELEASE\\" /Fd"RELEASE\VC110.PDB" /Gd /TP /analyze- C:\EPICFORCEBACKUP\EPICFORCEENGINE\EPICFORCEENGINE\WXMAGNUMEDITOR\WXFLOATSPINNERCTRL.CPP
^C:\EPICFORCEBACKUP\EPICFORCEENGINE\EPICFORCEENGINE\WXMAGNUMEDITOR\WXINTSPINNERCTRL.CPP
/c /I../MagnumEngineLib/MagnumCore /I../MagnumEngineLib/SDK/OpenGLES/GL2/Include /I../MagnumEngineLib/SDK/GLEW/Include/GL /I../MagnumEngineLib/SDK/unzip /Iwx\lib\vc_lib\mswu /Iwx\include /Zi /nologo /W3 /WX- /O2 /Oi /Oy- /GL /D _CRT_SECURE_NO_WARNINGS /D WIN32 /D NDEBUG /D _WINDOWS /D _UNICODE /D UNICODE /Gm- /EHsc /MD /GS /Gy /fp:precise /Zc:wchar_t /Zc:forScope /Fo"RELEASE\\" /Fd"RELEASE\VC110.PDB" /Gd /TP /analyze- C:\EPICFORCEBACKUP\EPICFORCEENGINE\EPICFORCEENGINE\WXMAGNUMEDITOR\WXINTSPINNERCTRL.CPP
^C:\EPICFORCEBACKUP\EPICFORCEENGINE\EPICFORCEENGINE\WXMAGNUMEDITOR\WXIVECTOR2SPINNERCTRL.CPP
/c /I../MagnumEngineLib/MagnumCore /I../MagnumEngineLib/SDK/OpenGLES/GL2/Include /I../MagnumEngineLib/SDK/GLEW/Include/GL /I../MagnumEngineLib/SDK/unzip /Iwx\lib\vc_lib\mswu /Iwx\include /Zi /nologo /W3 /WX- /O2 /Oi /Oy- /GL /D _CRT_SECURE_NO_WARNINGS /D WIN32 /D NDEBUG /D _WINDOWS /D _UNICODE /D UNICODE /Gm- /EHsc /MD /GS /Gy /fp:precise /Zc:wchar_t /Zc:forScope /Fo"RELEASE\\" /Fd"RELEASE\VC110.PDB" /Gd /TP /analyze- C:\EPICFORCEBACKUP\EPICFORCEENGINE\EPICFORCEENGINE\WXMAGNUMEDITOR\WXIVECTOR2SPINNERCTRL.CPP
^C:\EPICFORCEBACKUP\EPICFORCEENGINE\EPICFORCEENGINE\WXMAGNUMEDITOR\WXIVECTOR3SPINNERCTRL.CPP
/c /I../MagnumEngineLib/MagnumCore /I../MagnumEngineLib/SDK/OpenGLES/GL2/Include /I../MagnumEngineLib/SDK/GLEW/Include/GL /I../MagnumEngineLib/SDK/unzip /Iwx\lib\vc_lib\mswu /Iwx\include /Zi /nologo /W3 /WX- /O2 /Oi /Oy- /GL /D _CRT_SECURE_NO_WARNINGS /D WIN32 /D NDEBUG /D _WINDOWS /D _UNICODE /D UNICODE /Gm- /EHsc /MD /GS /Gy /fp:precise /Zc:wchar_t /Zc:forScope /Fo"RELEASE\\" /Fd"RELEASE\VC110.PDB" /Gd /TP /analyze- C:\EPICFORCEBACKUP\EPICFORCEENGINE\EPICFORCEENGINE\WXMAGNUMEDITOR\WXIVECTOR3SPINNERCTRL.CPP
^C:\EPICFORCEBACKUP\EPICFORCEENGINE\EPICFORCEENGINE\WXMAGNUMEDITOR\WXIVECTOR4SPINNERCTRL.CPP
/c /I../MagnumEngineLib/MagnumCore /I../MagnumEngineLib/SDK/OpenGLES/GL2/Include /I../MagnumEngineLib/SDK/GLEW/Include/GL /I../MagnumEngineLib/SDK/unzip /Iwx\lib\vc_lib\mswu /Iwx\include /Zi /nologo /W3 /WX- /O2 /Oi /Oy- /GL /D _CRT_SECURE_NO_WARNINGS /D WIN32 /D NDEBUG /D _WINDOWS /D _UNICODE /D UNICODE /Gm- /EHsc /MD /GS /Gy /fp:precise /Zc:wchar_t /Zc:forScope /Fo"RELEASE\\" /Fd"RELEASE\VC110.PDB" /Gd /TP /analyze- C:\EPICFORCEBACKUP\EPICFORCEENGINE\EPICFORCEENGINE\WXMAGNUMEDITOR\WXIVECTOR4SPINNERCTRL.CPP
^C:\EPICFORCEBACKUP\EPICFORCEENGINE\EPICFORCEENGINE\WXMAGNUMEDITOR\WXLABELCTRL.CPP
/c /I../MagnumEngineLib/MagnumCore /I../MagnumEngineLib/SDK/OpenGLES/GL2/Include /I../MagnumEngineLib/SDK/GLEW/Include/GL /I../MagnumEngineLib/SDK/unzip /Iwx\lib\vc_lib\mswu /Iwx\include /Zi /nologo /W3 /WX- /O2 /Oi /Oy- /GL /D _CRT_SECURE_NO_WARNINGS /D WIN32 /D NDEBUG /D _WINDOWS /D _UNICODE /D UNICODE /Gm- /EHsc /MD /GS /Gy /fp:precise /Zc:wchar_t /Zc:forScope /Fo"RELEASE\\" /Fd"RELEASE\VC110.PDB" /Gd /TP /analyze- C:\EPICFORCEBACKUP\EPICFORCEENGINE\EPICFORCEENGINE\WXMAGNUMEDITOR\WXLABELCTRL.CPP
^C:\EPICFORCEBACKUP\EPICFORCEENGINE\EPICFORCEENGINE\WXMAGNUMEDITOR\WXPROJECTDLG.CPP
/c /I../MagnumEngineLib/MagnumCore /I../MagnumEngineLib/SDK/OpenGLES/GL2/Include /I../MagnumEngineLib/SDK/GLEW/Include/GL /I../MagnumEngineLib/SDK/unzip /Iwx\lib\vc_lib\mswu /Iwx\include /Zi /nologo /W3 /WX- /O2 /Oi /Oy- /GL /D _CRT_SECURE_NO_WARNINGS /D WIN32 /D NDEBUG /D _WINDOWS /D _UNICODE /D UNICODE /Gm- /EHsc /MD /GS /Gy /fp:precise /Zc:wchar_t /Zc:forScope /Fo"RELEASE\\" /Fd"RELEASE\VC110.PDB" /Gd /TP /analyze- C:\EPICFORCEBACKUP\EPICFORCEENGINE\EPICFORCEENGINE\WXMAGNUMEDITOR\WXPROJECTDLG.CPP
^C:\EPICFORCEBACKUP\EPICFORCEENGINE\EPICFORCEENGINE\WXMAGNUMEDITOR\WXRESOURCEPATHCTRL.CPP
/c /I../MagnumEngineLib/MagnumCore /I../MagnumEngineLib/SDK/OpenGLES/GL2/Include /I../MagnumEngineLib/SDK/GLEW/Include/GL /I../MagnumEngineLib/SDK/unzip /Iwx\lib\vc_lib\mswu /Iwx\include /Zi /nologo /W3 /WX- /O2 /Oi /Oy- /GL /D _CRT_SECURE_NO_WARNINGS /D WIN32 /D NDEBUG /D _WINDOWS /D _UNICODE /D UNICODE /Gm- /EHsc /MD /GS /Gy /fp:precise /Zc:wchar_t /Zc:forScope /Fo"RELEASE\\" /Fd"RELEASE\VC110.PDB" /Gd /TP /analyze- C:\EPICFORCEBACKUP\EPICFORCEENGINE\EPICFORCEENGINE\WXMAGNUMEDITOR\WXRESOURCEPATHCTRL.CPP
^C:\EPICFORCEBACKUP\EPICFORCEENGINE\EPICFORCEENGINE\WXMAGNUMEDITOR\WXSTRINGCTRL.CPP
/c /I../MagnumEngineLib/MagnumCore /I../MagnumEngineLib/SDK/OpenGLES/GL2/Include /I../MagnumEngineLib/SDK/GLEW/Include/GL /I../MagnumEngineLib/SDK/unzip /Iwx\lib\vc_lib\mswu /Iwx\include /Zi /nologo /W3 /WX- /O2 /Oi /Oy- /GL /D _CRT_SECURE_NO_WARNINGS /D WIN32 /D NDEBUG /D _WINDOWS /D _UNICODE /D UNICODE /Gm- /EHsc /MD /GS /Gy /fp:precise /Zc:wchar_t /Zc:forScope /Fo"RELEASE\\" /Fd"RELEASE\VC110.PDB" /Gd /TP /analyze- C:\EPICFORCEBACKUP\EPICFORCEENGINE\EPICFORCEENGINE\WXMAGNUMEDITOR\WXSTRINGCTRL.CPP
^C:\EPICFORCEBACKUP\EPICFORCEENGINE\EPICFORCEENGINE\WXMAGNUMEDITOR\WXSRTTRANSFORMCTRL.CPP
/c /I../MagnumEngineLib/MagnumCore /I../MagnumEngineLib/SDK/OpenGLES/GL2/Include /I../MagnumEngineLib/SDK/GLEW/Include/GL /I../MagnumEngineLib/SDK/unzip /Iwx\lib\vc_lib\mswu /Iwx\include /Zi /nologo /W3 /WX- /O2 /Oi /Oy- /GL /D _CRT_SECURE_NO_WARNINGS /D WIN32 /D NDEBUG /D _WINDOWS /D _UNICODE /D UNICODE /Gm- /EHsc /MD /GS /Gy /fp:precise /Zc:wchar_t /Zc:forScope /Fo"RELEASE\\" /Fd"RELEASE\VC110.PDB" /Gd /TP /analyze- C:\EPICFORCEBACKUP\EPICFORCEENGINE\EPICFORCEENGINE\WXMAGNUMEDITOR\WXSRTTRANSFORMCTRL.CPP
^C:\EPICFORCEBACKUP\EPICFORCEENGINE\EPICFORCEENGINE\WXMAGNUMEDITOR\WXUINTSPINNERCTRL.CPP
/c /I../MagnumEngineLib/MagnumCore /I../MagnumEngineLib/SDK/OpenGLES/GL2/Include /I../MagnumEngineLib/SDK/GLEW/Include/GL /I../MagnumEngineLib/SDK/unzip /Iwx\lib\vc_lib\mswu /Iwx\include /Zi /nologo /W3 /WX- /O2 /Oi /Oy- /GL /D _CRT_SECURE_NO_WARNINGS /D WIN32 /D NDEBUG /D _WINDOWS /D _UNICODE /D UNICODE /Gm- /EHsc /MD /GS /Gy /fp:precise /Zc:wchar_t /Zc:forScope /Fo"RELEASE\\" /Fd"RELEASE\VC110.PDB" /Gd /TP /analyze- C:\EPICFORCEBACKUP\EPICFORCEENGINE\EPICFORCEENGINE\WXMAGNUMEDITOR\WXUINTSPINNERCTRL.CPP
^C:\EPICFORCEBACKUP\EPICFORCEENGINE\EPICFORCEENGINE\WXMAGNUMEDITOR\WXVECTOR2SPINNERCTRL.CPP
/c /I../MagnumEngineLib/MagnumCore /I../MagnumEngineLib/SDK/OpenGLES/GL2/Include /I../MagnumEngineLib/SDK/GLEW/Include/GL /I../MagnumEngineLib/SDK/unzip /Iwx\lib\vc_lib\mswu /Iwx\include /Zi /nologo /W3 /WX- /O2 /Oi /Oy- /GL /D _CRT_SECURE_NO_WARNINGS /D WIN32 /D NDEBUG /D _WINDOWS /D _UNICODE /D UNICODE /Gm- /EHsc /MD /GS /Gy /fp:precise /Zc:wchar_t /Zc:forScope /Fo"RELEASE\\" /Fd"RELEASE\VC110.PDB" /Gd /TP /analyze- C:\EPICFORCEBACKUP\EPICFORCEENGINE\EPICFORCEENGINE\WXMAGNUMEDITOR\WXVECTOR2SPINNERCTRL.CPP
^C:\EPICFORCEBACKUP\EPICFORCEENGINE\EPICFORCEENGINE\WXMAGNUMEDITOR\WXVECTOR3SPINNERCTRL.CPP
/c /I../MagnumEngineLib/MagnumCore /I../MagnumEngineLib/SDK/OpenGLES/GL2/Include /I../MagnumEngineLib/SDK/GLEW/Include/GL /I../MagnumEngineLib/SDK/unzip /Iwx\lib\vc_lib\mswu /Iwx\include /Zi /nologo /W3 /WX- /O2 /Oi /Oy- /GL /D _CRT_SECURE_NO_WARNINGS /D WIN32 /D NDEBUG /D _WINDOWS /D _UNICODE /D UNICODE /Gm- /EHsc /MD /GS /Gy /fp:precise /Zc:wchar_t /Zc:forScope /Fo"RELEASE\\" /Fd"RELEASE\VC110.PDB" /Gd /TP /analyze- C:\EPICFORCEBACKUP\EPICFORCEENGINE\EPICFORCEENGINE\WXMAGNUMEDITOR\WXVECTOR3SPINNERCTRL.CPP
^C:\EPICFORCEBACKUP\EPICFORCEENGINE\EPICFORCEENGINE\WXMAGNUMEDITOR\WXVECTOR4SPINNERCTRL.CPP
/c /I../MagnumEngineLib/MagnumCore /I../MagnumEngineLib/SDK/OpenGLES/GL2/Include /I../MagnumEngineLib/SDK/GLEW/Include/GL /I../MagnumEngineLib/SDK/unzip /Iwx\lib\vc_lib\mswu /Iwx\include /Zi /nologo /W3 /WX- /O2 /Oi /Oy- /GL /D _CRT_SECURE_NO_WARNINGS /D WIN32 /D NDEBUG /D _WINDOWS /D _UNICODE /D UNICODE /Gm- /EHsc /MD /GS /Gy /fp:precise /Zc:wchar_t /Zc:forScope /Fo"RELEASE\\" /Fd"RELEASE\VC110.PDB" /Gd /TP /analyze- C:\EPICFORCEBACKUP\EPICFORCEENGINE\EPICFORCEENGINE\WXMAGNUMEDITOR\WXVECTOR4SPINNERCTRL.CPP
^C:\EPICFORCEBACKUP\EPICFORCEENGINE\EPICFORCEENGINE\WXMAGNUMEDITOR\EDITTOOLBARVIEW.CPP
/c /I../MagnumEngineLib/MagnumCore /I../MagnumEngineLib/SDK/OpenGLES/GL2/Include /I../MagnumEngineLib/SDK/GLEW/Include/GL /I../MagnumEngineLib/SDK/unzip /Iwx\lib\vc_lib\mswu /Iwx\include /Zi /nologo /W3 /WX- /O2 /Oi /Oy- /GL /D _CRT_SECURE_NO_WARNINGS /D WIN32 /D NDEBUG /D _WINDOWS /D _UNICODE /D UNICODE /Gm- /EHsc /MD /GS /Gy /fp:precise /Zc:wchar_t /Zc:forScope /Fo"RELEASE\\" /Fd"RELEASE\VC110.PDB" /Gd /TP /analyze- C:\EPICFORCEBACKUP\EPICFORCEENGINE\EPICFORCEENGINE\WXMAGNUMEDITOR\EDITTOOLBARVIEW.CPP
^C:\EPICFORCEBACKUP\EPICFORCEENGINE\EPICFORCEENGINE\WXMAGNUMEDITOR\BUILDMODETOOLBARVIEW.CPP
/c /I../MagnumEngineLib/MagnumCore /I../MagnumEngineLib/SDK/OpenGLES/GL2/Include /I../MagnumEngineLib/SDK/GLEW/Include/GL /I../MagnumEngineLib/SDK/unzip /Iwx\lib\vc_lib\mswu /Iwx\include /Zi /nologo /W3 /WX- /O2 /Oi /Oy- /GL /D _CRT_SECURE_NO_WARNINGS /D WIN32 /D NDEBUG /D _WINDOWS /D _UNICODE /D UNICODE /Gm- /EHsc /MD /GS /Gy /fp:precise /Zc:wchar_t /Zc:forScope /Fo"RELEASE\\" /Fd"RELEASE\VC110.PDB" /Gd /TP /analyze- C:\EPICFORCEBACKUP\EPICFORCEENGINE\EPICFORCEENGINE\WXMAGNUMEDITOR\BUILDMODETOOLBARVIEW.CPP
^C:\EPICFORCEBACKUP\EPICFORCEENGINE\EPICFORCEENGINE\WXMAGNUMEDITOR\DEBUGVIEW.CPP
/c /I../MagnumEngineLib/MagnumCore /I../MagnumEngineLib/SDK/OpenGLES/GL2/Include /I../MagnumEngineLib/SDK/GLEW/Include/GL /I../MagnumEngineLib/SDK/unzip /Iwx\lib\vc_lib\mswu /Iwx\include /Zi /nologo /W3 /WX- /O2 /Oi /Oy- /GL /D _CRT_SECURE_NO_WARNINGS /D WIN32 /D NDEBUG /D _WINDOWS /D _UNICODE /D UNICODE /Gm- /EHsc /MD /GS /Gy /fp:precise /Zc:wchar_t /Zc:forScope /Fo"RELEASE\\" /Fd"RELEASE\VC110.PDB" /Gd /TP /analyze- C:\EPICFORCEBACKUP\EPICFORCEENGINE\EPICFORCEENGINE\WXMAGNUMEDITOR\DEBUGVIEW.CPP
^C:\EPICFORCEBACKUP\EPICFORCEENGINE\EPICFORCEENGINE\WXMAGNUMEDITOR\ENTITYCREATORSVIEW.CPP
/c /I../MagnumEngineLib/MagnumCore /I../MagnumEngineLib/SDK/OpenGLES/GL2/Include /I../MagnumEngineLib/SDK/GLEW/Include/GL /I../MagnumEngineLib/SDK/unzip /Iwx\lib\vc_lib\mswu /Iwx\include /Zi /nologo /W3 /WX- /O2 /Oi /Oy- /GL /D _CRT_SECURE_NO_WARNINGS /D WIN32 /D NDEBUG /D _WINDOWS /D _UNICODE /D UNICODE /Gm- /EHsc /MD /GS /Gy /fp:precise /Zc:wchar_t /Zc:forScope /Fo"RELEASE\\" /Fd"RELEASE\VC110.PDB" /Gd /TP /analyze- C:\EPICFORCEBACKUP\EPICFORCEENGINE\EPICFORCEENGINE\WXMAGNUMEDITOR\ENTITYCREATORSVIEW.CPP
^C:\EPICFORCEBACKUP\EPICFORCEENGINE\EPICFORCEENGINE\WXMAGNUMEDITOR\ENTITYPANEL.CPP
/c /I../MagnumEngineLib/MagnumCore /I../MagnumEngineLib/SDK/OpenGLES/GL2/Include /I../MagnumEngineLib/SDK/GLEW/Include/GL /I../MagnumEngineLib/SDK/unzip /Iwx\lib\vc_lib\mswu /Iwx\include /Zi /nologo /W3 /WX- /O2 /Oi /Oy- /GL /D _CRT_SECURE_NO_WARNINGS /D WIN32 /D NDEBUG /D _WINDOWS /D _UNICODE /D UNICODE /Gm- /EHsc /MD /GS /Gy /fp:precise /Zc:wchar_t /Zc:forScope /Fo"RELEASE\\" /Fd"RELEASE\VC110.PDB" /Gd /TP /analyze- C:\EPICFORCEBACKUP\EPICFORCEENGINE\EPICFORCEENGINE\WXMAGNUMEDITOR\ENTITYPANEL.CPP
^C:\EPICFORCEBACKUP\EPICFORCEENGINE\EPICFORCEENGINE\WXMAGNUMEDITOR\FILETOOLBARVIEW.CPP
/c /I../MagnumEngineLib/MagnumCore /I../MagnumEngineLib/SDK/OpenGLES/GL2/Include /I../MagnumEngineLib/SDK/GLEW/Include/GL /I../MagnumEngineLib/SDK/unzip /Iwx\lib\vc_lib\mswu /Iwx\include /Zi /nologo /W3 /WX- /O2 /Oi /Oy- /GL /D _CRT_SECURE_NO_WARNINGS /D WIN32 /D NDEBUG /D _WINDOWS /D _UNICODE /D UNICODE /Gm- /EHsc /MD /GS /Gy /fp:precise /Zc:wchar_t /Zc:forScope /Fo"RELEASE\\" /Fd"RELEASE\VC110.PDB" /Gd /TP /analyze- C:\EPICFORCEBACKUP\EPICFORCEENGINE\EPICFORCEENGINE\WXMAGNUMEDITOR\FILETOOLBARVIEW.CPP
^C:\EPICFORCEBACKUP\EPICFORCEENGINE\EPICFORCEENGINE\WXMAGNUMEDITOR\HIERARCHYVIEW.CPP
/c /I../MagnumEngineLib/MagnumCore /I../MagnumEngineLib/SDK/OpenGLES/GL2/Include /I../MagnumEngineLib/SDK/GLEW/Include/GL /I../MagnumEngineLib/SDK/unzip /Iwx\lib\vc_lib\mswu /Iwx\include /Zi /nologo /W3 /WX- /O2 /Oi /Oy- /GL /D _CRT_SECURE_NO_WARNINGS /D WIN32 /D NDEBUG /D _WINDOWS /D _UNICODE /D UNICODE /Gm- /EHsc /MD /GS /Gy /fp:precise /Zc:wchar_t /Zc:forScope /Fo"RELEASE\\" /Fd"RELEASE\VC110.PDB" /Gd /TP /analyze- C:\EPICFORCEBACKUP\EPICFORCEENGINE\EPICFORCEENGINE\WXMAGNUMEDITOR\HIERARCHYVIEW.CPP
^C:\EPICFORCEBACKUP\EPICFORCEENGINE\EPICFORCEENGINE\WXMAGNUMEDITOR\INSPECTORVIEW.CPP
/c /I../MagnumEngineLib/MagnumCore /I../MagnumEngineLib/SDK/OpenGLES/GL2/Include /I../MagnumEngineLib/SDK/GLEW/Include/GL /I../MagnumEngineLib/SDK/unzip /Iwx\lib\vc_lib\mswu /Iwx\include /Zi /nologo /W3 /WX- /O2 /Oi /Oy- /GL /D _CRT_SECURE_NO_WARNINGS /D WIN32 /D NDEBUG /D _WINDOWS /D _UNICODE /D UNICODE /Gm- /EHsc /MD /GS /Gy /fp:precise /Zc:wchar_t /Zc:forScope /Fo"RELEASE\\" /Fd"RELEASE\VC110.PDB" /Gd /TP /analyze- C:\EPICFORCEBACKUP\EPICFORCEENGINE\EPICFORCEENGINE\WXMAGNUMEDITOR\INSPECTORVIEW.CPP
^C:\EPICFORCEBACKUP\EPICFORCEENGINE\EPICFORCEENGINE\WXMAGNUMEDITOR\MISCATOOLBARVIEW.CPP
/c /I../MagnumEngineLib/MagnumCore /I../MagnumEngineLib/SDK/OpenGLES/GL2/Include /I../MagnumEngineLib/SDK/GLEW/Include/GL /I../MagnumEngineLib/SDK/unzip /Iwx\lib\vc_lib\mswu /Iwx\include /Zi /nologo /W3 /WX- /O2 /Oi /Oy- /GL /D _CRT_SECURE_NO_WARNINGS /D WIN32 /D NDEBUG /D _WINDOWS /D _UNICODE /D UNICODE /Gm- /EHsc /MD /GS /Gy /fp:precise /Zc:wchar_t /Zc:forScope /Fo"RELEASE\\" /Fd"RELEASE\VC110.PDB" /Gd /TP /analyze- C:\EPICFORCEBACKUP\EPICFORCEENGINE\EPICFORCEENGINE\WXMAGNUMEDITOR\MISCATOOLBARVIEW.CPP
^C:\EPICFORCEBACKUP\EPICFORCEENGINE\EPICFORCEENGINE\WXMAGNUMEDITOR\MISCBTOOLBARVIEW.CPP
/c /I../MagnumEngineLib/MagnumCore /I../MagnumEngineLib/SDK/OpenGLES/GL2/Include /I../MagnumEngineLib/SDK/GLEW/Include/GL /I../MagnumEngineLib/SDK/unzip /Iwx\lib\vc_lib\mswu /Iwx\include /Zi /nologo /W3 /WX- /O2 /Oi /Oy- /GL /D _CRT_SECURE_NO_WARNINGS /D WIN32 /D NDEBUG /D _WINDOWS /D _UNICODE /D UNICODE /Gm- /EHsc /MD /GS /Gy /fp:precise /Zc:wchar_t /Zc:forScope /Fo"RELEASE\\" /Fd"RELEASE\VC110.PDB" /Gd /TP /analyze- C:\EPICFORCEBACKUP\EPICFORCEENGINE\EPICFORCEENGINE\WXMAGNUMEDITOR\MISCBTOOLBARVIEW.CPP
^C:\EPICFORCEBACKUP\EPICFORCEENGINE\EPICFORCEENGINE\WXMAGNUMEDITOR\OPERATIONMODETOOLBARVIEW.CPP
/c /I../MagnumEngineLib/MagnumCore /I../MagnumEngineLib/SDK/OpenGLES/GL2/Include /I../MagnumEngineLib/SDK/GLEW/Include/GL /I../MagnumEngineLib/SDK/unzip /Iwx\lib\vc_lib\mswu /Iwx\include /Zi /nologo /W3 /WX- /O2 /Oi /Oy- /GL /D _CRT_SECURE_NO_WARNINGS /D WIN32 /D NDEBUG /D _WINDOWS /D _UNICODE /D UNICODE /Gm- /EHsc /MD /GS /Gy /fp:precise /Zc:wchar_t /Zc:forScope /Fo"RELEASE\\" /Fd"RELEASE\VC110.PDB" /Gd /TP /analyze- C:\EPICFORCEBACKUP\EPICFORCEENGINE\EPICFORCEENGINE\WXMAGNUMEDITOR\OPERATIONMODETOOLBARVIEW.CPP
^C:\EPICFORCEBACKUP\EPICFORCEENGINE\EPICFORCEENGINE\WXMAGNUMEDITOR\PLAYMODETOOLBARVIEW.CPP
/c /I../MagnumEngineLib/MagnumCore /I../MagnumEngineLib/SDK/OpenGLES/GL2/Include /I../MagnumEngineLib/SDK/GLEW/Include/GL /I../MagnumEngineLib/SDK/unzip /Iwx\lib\vc_lib\mswu /Iwx\include /Zi /nologo /W3 /WX- /O2 /Oi /Oy- /GL /D _CRT_SECURE_NO_WARNINGS /D WIN32 /D NDEBUG /D _WINDOWS /D _UNICODE /D UNICODE /Gm- /EHsc /MD /GS /Gy /fp:precise /Zc:wchar_t /Zc:forScope /Fo"RELEASE\\" /Fd"RELEASE\VC110.PDB" /Gd /TP /analyze- C:\EPICFORCEBACKUP\EPICFORCEENGINE\EPICFORCEENGINE\WXMAGNUMEDITOR\PLAYMODETOOLBARVIEW.CPP
^C:\EPICFORCEBACKUP\EPICFORCEENGINE\EPICFORCEENGINE\WXMAGNUMEDITOR\POINTERTREEITEMMAP.CPP
/c /I../MagnumEngineLib/MagnumCore /I../MagnumEngineLib/SDK/OpenGLES/GL2/Include /I../MagnumEngineLib/SDK/GLEW/Include/GL /I../MagnumEngineLib/SDK/unzip /Iwx\lib\vc_lib\mswu /Iwx\include /Zi /nologo /W3 /WX- /O2 /Oi /Oy- /GL /D _CRT_SECURE_NO_WARNINGS /D WIN32 /D NDEBUG /D _WINDOWS /D _UNICODE /D UNICODE /Gm- /EHsc /MD /GS /Gy /fp:precise /Zc:wchar_t /Zc:forScope /Fo"RELEASE\\" /Fd"RELEASE\VC110.PDB" /Gd /TP /analyze- C:\EPICFORCEBACKUP\EPICFORCEENGINE\EPICFORCEENGINE\WXMAGNUMEDITOR\POINTERTREEITEMMAP.CPP
^C:\EPICFORCEBACKUP\EPICFORCEENGINE\EPICFORCEENGINE\WXMAGNUMEDITOR\PROJECTVIEW.CPP
/c /I../MagnumEngineLib/MagnumCore /I../MagnumEngineLib/SDK/OpenGLES/GL2/Include /I../MagnumEngineLib/SDK/GLEW/Include/GL /I../MagnumEngineLib/SDK/unzip /Iwx\lib\vc_lib\mswu /Iwx\include /Zi /nologo /W3 /WX- /O2 /Oi /Oy- /GL /D _CRT_SECURE_NO_WARNINGS /D WIN32 /D NDEBUG /D _WINDOWS /D _UNICODE /D UNICODE /Gm- /EHsc /MD /GS /Gy /fp:precise /Zc:wchar_t /Zc:forScope /Fo"RELEASE\\" /Fd"RELEASE\VC110.PDB" /Gd /TP /analyze- C:\EPICFORCEBACKUP\EPICFORCEENGINE\EPICFORCEENGINE\WXMAGNUMEDITOR\PROJECTVIEW.CPP
^C:\EPICFORCEBACKUP\EPICFORCEENGINE\EPICFORCEENGINE\WXMAGNUMEDITOR\RESOURCEIMPORTERVIEW.CPP
/c /I../MagnumEngineLib/MagnumCore /I../MagnumEngineLib/SDK/OpenGLES/GL2/Include /I../MagnumEngineLib/SDK/GLEW/Include/GL /I../MagnumEngineLib/SDK/unzip /Iwx\lib\vc_lib\mswu /Iwx\include /Zi /nologo /W3 /WX- /O2 /Oi /Oy- /GL /D _CRT_SECURE_NO_WARNINGS /D WIN32 /D NDEBUG /D _WINDOWS /D _UNICODE /D UNICODE /Gm- /EHsc /MD /GS /Gy /fp:precise /Zc:wchar_t /Zc:forScope /Fo"RELEASE\\" /Fd"RELEASE\VC110.PDB" /Gd /TP /analyze- C:\EPICFORCEBACKUP\EPICFORCEENGINE\EPICFORCEENGINE\WXMAGNUMEDITOR\RESOURCEIMPORTERVIEW.CPP
^C:\EPICFORCEBACKUP\EPICFORCEENGINE\EPICFORCEENGINE\WXMAGNUMEDITOR\SCENEVIEW.CPP
/c /I../MagnumEngineLib/MagnumCore /I../MagnumEngineLib/SDK/OpenGLES/GL2/Include /I../MagnumEngineLib/SDK/GLEW/Include/GL /I../MagnumEngineLib/SDK/unzip /Iwx\lib\vc_lib\mswu /Iwx\include /Zi /nologo /W3 /WX- /O2 /Oi /Oy- /GL /D _CRT_SECURE_NO_WARNINGS /D WIN32 /D NDEBUG /D _WINDOWS /D _UNICODE /D UNICODE /Gm- /EHsc /MD /GS /Gy /fp:precise /Zc:wchar_t /Zc:forScope /Fo"RELEASE\\" /Fd"RELEASE\VC110.PDB" /Gd /TP /analyze- C:\EPICFORCEBACKUP\EPICFORCEENGINE\EPICFORCEENGINE\WXMAGNUMEDITOR\SCENEVIEW.CPP
^C:\EPICFORCEBACKUP\EPICFORCEENGINE\EPICFORCEENGINE\WXMAGNUMEDITOR\MAIN.CPP
/c /I../MagnumEngineLib/MagnumCore /I../MagnumEngineLib/SDK/OpenGLES/GL2/Include /I../MagnumEngineLib/SDK/GLEW/Include/GL /I../MagnumEngineLib/SDK/unzip /Iwx\lib\vc_lib\mswu /Iwx\include /Zi /nologo /W3 /WX- /O2 /Oi /Oy- /GL /D _CRT_SECURE_NO_WARNINGS /D WIN32 /D NDEBUG /D _WINDOWS /D _UNICODE /D UNICODE /Gm- /EHsc /MD /GS /Gy /fp:precise /Zc:wchar_t /Zc:forScope /Fo"RELEASE\\" /Fd"RELEASE\VC110.PDB" /Gd /TP /analyze- C:\EPICFORCEBACKUP\EPICFORCEENGINE\EPICFORCEENGINE\WXMAGNUMEDITOR\MAIN.CPP
